{
    "Global": {
	"Comment" : "setup-1 stability"
    },

    "ADC": {
	"Number of VX2740": 0,
	"Number of V1725": 4
    },

    "Baseline": {
	"Pedestal":150
    },
    
    "ROI":{
	"min":1200,
	"max charge":1450,
	"max peak":1275,
	"filter min":1200,
	"filter max charge":1800,
	"filter max peak":1275
    },
    
    "Filter": {
	"Name":"Moving Average",
	"Par0":100,
	"Par1":false
    },
    
    "Pulse": {
	"Fixed":false,
	"Sigma":1.5,
	"Amplitude":40,
	"Duration":100,
	"Charge":{
	    "before":100,
	    "total":400
	}
    },

    "Histo": {
	"Number of Channels":32,
	"Bins baseline":2000,
	"Lower bound baseline":14000,
	"Upper bound baseline":16000,
	"Bins baseline rms":500,
	"Lower bound baseline rms":0,
	"Upper bound baseline rms":500,
	"Bins pulse height":1000,
	"Upper bound pulse height":3000,
	"Bins charge":2000,
	"Upper bound charge":200000,
	"Bins time":2000,
	"Upper bound time":20000,
	"Bins ROI PH":1800,
	"Upper bound ROI PH":18000,
	"Bins ROI Q":1000,
	"Upper bound ROI Q":1000000,
	"Bins Rate":6000,
	"Upper bound run time":30000
    },

    "Plot": {
	"Canvas":true,
	"Channel":0,
	"Persistency":true,
	"Persistency Channel":0,
	"Persistency Events Limit":2000,
	"Save PDF":false,
	"Save Events Limit":100,
	"Raw WF Minimum":0,
	"Raw WF Maximum":18000
    }
}
